{
		"_id" : "user123",
		"firstName" : "Elon",
		"lastName" : "Mask",
		"email" : "elonmask@gmail.com",
		"password" : "user123",
		"isAdmin" : false,
		"mobileNumber" : "09151845123",
},
{
		"_id" : "user456",
		"firstName" : "Mark",
		"lastName" : "Cuban",
		"email" : "markcuban@gmail.com",
		"password" : "user456",
		"isAdmin" : false,
		"mobileNumber" : "09151845456",
},